%YAML 1.1
%TAG !u! tag:unity3d.com,2011:
--- !u!1045 &1
EditorBuildSettings:
  m_ObjectHideFlags: 0
  serializedVersion: 2
  m_Scenes:
  - enabled: 1
    path: Assets/Scenes/TheScene.unity
    guid: 2cda990e2423bbf4892e6590ba056729
  m_configObjects:
    com.unity.addressableassets: {fileID: 11400000, guid: 3fa5cc37b63b2dc4ea0e12252ce85188, type: 2}
    com.unity.input.settings: {fileID: 11400000, guid: 9bc9fdf400071ec4b97ba372dd21bd4e, type: 2}
